{
  "version": "7",
  "dialect": "postgresql",
  "entries": [
    {
      "idx": 0,
      "version": "7",
      "when": 1738781718062,
      "tag": "0000_initial",
      "breakpoints": true
    },
    {
      "idx": 1,
      "version": "7",
      "when": 1738792141446,
      "tag": "0001_undo",
      "breakpoints": true
    },
    {
      "idx": 2,
      "version": "7",
      "when": 1738792200766,
      "tag": "0002_user",
      "breakpoints": true
    },
    {
      "idx": 3,
      "version": "7",
      "when": 1738796577845,
      "tag": "0003_users",
      "breakpoints": true
    }
  ]
}